{
	"variables": [],
	"info": {
		"name": "recipes",
		"_postman_id": "bd17edcc-3b58-f8f9-d82f-ad70cfc4bf10",
		"description": "",
		"schema": "https://schema.getpostman.com/json/collection/v2.0.0/collection.json"
	},
	"item": [
		{
			"name": "Recipe",
			"description": "",
			"item": [
				{
					"name": "Images",
					"description": "",
					"item": [
						{
							"name": "Add images to recipe",
							"request": {
								"url": "http://localhost:8000/api/recipes/15/images",
								"method": "POST",
								"header": [],
								"body": {
									"mode": "formdata",
									"formdata": [
										{
											"key": "api_token",
											"value": "EktPnwomdtABUFclmAkSTGb5WblAlhek",
											"description": "",
											"type": "text"
										},
										{
											"key": "images[]",
											"value": "",
											"description": "",
											"type": "file"
										}
									]
								},
								"description": ""
							},
							"response": []
						},
						{
							"name": "Delete",
							"request": {
								"url": "http://localhost:8000/api/recipes/15/images/30",
								"method": "DELETE",
								"header": [
									{
										"key": "Content-Type",
										"value": "application/x-www-form-urlencoded",
										"description": ""
									}
								],
								"body": {
									"mode": "urlencoded",
									"urlencoded": [
										{
											"key": "api_token",
											"value": "EktPnwomdtABUFclmAkSTGb5WblAlhek",
											"description": "",
											"type": "text"
										}
									]
								},
								"description": ""
							},
							"response": []
						}
					],
					"_postman_isSubFolder": true
				},
				{
					"name": "Create",
					"request": {
						"url": "http://localhost:8000/api/recipes",
						"method": "POST",
						"header": [],
						"body": {
							"mode": "formdata",
							"formdata": [
								{
									"key": "api_token",
									"value": "EktPnwomdtABUFclmAkSTGb5WblAlhek",
									"description": "Копируем ответ после логина",
									"type": "text"
								},
								{
									"key": "name",
									"value": "Soup",
									"description": "",
									"type": "text"
								},
								{
									"key": "ingredients[0][Картофель]",
									"value": "2шт",
									"description": "",
									"type": "text"
								},
								{
									"key": "ingredients[0][Морковь]",
									"value": "1шт",
									"description": ""
								}
							]
						},
						"description": ""
					},
					"response": []
				},
				{
					"name": "Get recipe",
					"request": {
						"url": "http://localhost:8000/api/recipes/1",
						"method": "GET",
						"header": [],
						"body": {},
						"description": ""
					},
					"response": []
				},
				{
					"name": "Update",
					"request": {
						"url": "http://localhost:8000/api/recipes/15",
						"method": "PUT",
						"header": [
							{
								"key": "Content-Type",
								"value": "application/x-www-form-urlencoded",
								"description": ""
							}
						],
						"body": {
							"mode": "urlencoded",
							"urlencoded": [
								{
									"key": "api_token",
									"value": "EktPnwomdtABUFclmAkSTGb5WblAlhek",
									"description": "",
									"type": "text"
								},
								{
									"key": "name",
									"value": "Soup two",
									"description": "",
									"type": "text"
								}
							]
						},
						"description": ""
					},
					"response": []
				},
				{
					"name": "Delete",
					"request": {
						"url": "http://localhost:8000/api/recipes/15",
						"method": "DELETE",
						"header": [
							{
								"key": "Content-Type",
								"value": "application/x-www-form-urlencoded",
								"description": ""
							}
						],
						"body": {
							"mode": "urlencoded",
							"urlencoded": [
								{
									"key": "api_token",
									"value": "wVg5e4aueYEJl69PC3k5hPN4XkdBeTCb",
									"description": "",
									"type": "text"
								}
							]
						},
						"description": ""
					},
					"response": []
				}
			]
		},
		{
			"name": "User",
			"description": "",
			"item": [
				{
					"name": "Register",
					"request": {
						"url": "http://localhost:8000/api/users/register",
						"method": "POST",
						"header": [],
						"body": {
							"mode": "formdata",
							"formdata": [
								{
									"key": "name",
									"value": "Ivan Porozhnyy",
									"description": "",
									"type": "text"
								},
								{
									"key": "email",
									"value": "user@domain.com",
									"description": "",
									"type": "text"
								},
								{
									"key": "password",
									"value": "testpassword",
									"description": "",
									"type": "text"
								}
							]
						},
						"description": ""
					},
					"response": []
				},
				{
					"name": "Login",
					"request": {
						"url": "http://localhost:8000/api/users/login",
						"method": "POST",
						"header": [],
						"body": {
							"mode": "formdata",
							"formdata": [
								{
									"key": "email",
									"value": "user@domain.com",
									"description": "",
									"type": "text"
								},
								{
									"key": "password",
									"value": "testpassword",
									"description": "",
									"type": "text"
								}
							]
						},
						"description": ""
					},
					"response": []
				}
			]
		}
	]
}